…
<!-- end list -->

``` r
data("chimpanzees")
d <- as_tibble(chimpanzees) %>% janitor::clean_names()
d
```

    ## # A tibble: 504 x 8
    ##    actor recipient condition block trial prosoc_left chose_prosoc pulled_left
    ##    <int>     <int>     <int> <int> <int>       <int>        <int>       <int>
    ##  1     1        NA         0     1     2           0            1           0
    ##  2     1        NA         0     1     4           0            0           1
    ##  3     1        NA         0     1     6           1            0           0
    ##  4     1        NA         0     1     8           0            1           0
    ##  5     1        NA         0     1    10           1            1           1
    ##  6     1        NA         0     1    12           1            1           1
    ##  7     1        NA         0     2    14           1            0           0
    ##  8     1        NA         0     2    16           1            0           0
    ##  9     1        NA         0     2    18           0            1           0
    ## 10     1        NA         0     2    20           0            1           0
    ## # … with 494 more rows
…
