…
# 2. Sample second level parameters for each pond.
a_pond <- rnorm(nponds, mean = a, sd = sigma)

# 3. Organize into a data frame.
dsim <- tibble(pond = seq(1, nponds), 
               ni = ni,
               true_a = a_pond)
dsim
```

    ## # A tibble: 60 x 3
    ##     pond    ni   true_a
    ##    <int> <int>    <dbl>
    ##  1     1     5  3.29   
    ##  2     2     5  0.911  
    ##  3     3     5  3.39   
    ##  4     4     5  3.31   
    ##  5     5     5  2.02   
    ##  6     6     5 -0.910  
    ##  7     7     5  0.00715
    ##  8     8     5  0.958  
    ##  9     9     5  1.39   
    ## 10    10     5  5.01   
    ## # … with 50 more rows
…
