…
# Get the average wait time for each cafe in the morning and afternoon.
mu <- a_cafe[cafe_id] + b_cafe[cafe_id] * afternoon

sigma <- 0.5  # Standard deviation within cafes

# Sample wait times with each cafes unique average wait time per time of day.
wait_times <- rnorm(N_visits*N_cafes, mu, sigma)

d <- tibble(cafe = cafe_id, afternoon, wait = wait_times)
d
```

    #> # A tibble: 200 x 3
    #>     cafe afternoon  wait
    #>    <int>     <int> <dbl>
    #>  1     1         0  5.00
    #>  2     1         1  2.21
    #>  3     1         0  4.19
    #>  4     1         1  3.56
    #>  5     1         0  4.00
    #>  6     1         1  2.90
    #>  7     1         0  3.78
    #>  8     1         1  2.38
    #>  9     1         0  3.86
    #> 10     1         1  2.58
    #> # … with 190 more rows
…
