…
# Number of plants
N <- 100
# Simulate initial heights
h0 <- rnorm(N, 10, 2)
# Assign treatments and simulate fungus and growth
treatment <- rep(0:1, each = N/2)
fungus <- rbinom(N, size = 1, prob = 0.5 - treatment * 0.4)
h1 <- h0 + rnorm(N, 5 - 3 * fungus)

# Final data frame
d <- tibble(h0, h1, treatment, fungus)
d
```

    ## # A tibble: 100 x 4
    ##       h0    h1 treatment fungus
    ##    <dbl> <dbl>     <int>  <int>
    ##  1  8.88  14.7         0      0
    ##  2  9.54  12.3         0      1
    ##  3 13.1   15.4         0      1
    ##  4 10.1   11.1         0      1
    ##  5 10.3   15.1         0      0
    ##  6 13.4   15.1         0      1
    ##  7 10.9   16.5         0      0
    ##  8  7.47  12.1         0      0
    ##  9  8.63  14.6         0      0
    ## 10  9.11  13.7         0      0
    ## # … with 90 more rows
…
